\relax 
\providecommand\hyper@newdestlabel[2]{}
\providecommand\HyperFirstAtBeginDocument{\AtBeginDocument}
\HyperFirstAtBeginDocument{\ifx\hyper@anchor\@undefined
\global\let\oldcontentsline\contentsline
\gdef\contentsline#1#2#3#4{\oldcontentsline{#1}{#2}{#3}}
\global\let\oldnewlabel\newlabel
\gdef\newlabel#1#2{\newlabelxx{#1}#2}
\gdef\newlabelxx#1#2#3#4#5#6{\oldnewlabel{#1}{{#2}{#3}}}
\AtEndDocument{\ifx\hyper@anchor\@undefined
\let\contentsline\oldcontentsline
\let\newlabel\oldnewlabel
\fi}
\fi}
\global\let\hyper@last\relax 
\gdef\HyperFirstAtBeginDocument#1{#1}
\providecommand\HyField@AuxAddToFields[1]{}
\providecommand\HyField@AuxAddToCoFields[2]{}
\@writefile{toc}{\contentsline {chapter}{Acknowledgments}{iii}{section*.1}\protected@file@percent }
\@writefile{toc}{\contentsline {chapter}{Abstract}{vii}{section*.2}\protected@file@percent }
\@writefile{toc}{\contentsline {chapter}{Table of Contents}{xi}{section*.3}\protected@file@percent }
\citation{WHILEY:4}
\citation{SMC:2}
\citation{SMC:1}
\@writefile{toc}{\contentsline {chapter}{List of Figures}{xiii}{section*.5}\protected@file@percent }
\citation{SMC:1}
\citation{THERAC}
\citation{BufO}
\citation{TURING}
\@writefile{toc}{\contentsline {chapter}{\numberline {1}Introduction}{1}{chapter.1}\protected@file@percent }
\@writefile{lof}{\addvspace {10\p@ }}
\@writefile{lot}{\addvspace {10\p@ }}
\newlabel{chap:Introduction}{{1}{1}{Introduction}{chapter.1}{}}
\citation{WHILEY:1}
\citation{Ultimate-Automizer}
\citation{esbmc2018}
\@writefile{toc}{\contentsline {section}{\numberline {1.1}Project Goal}{2}{section.1.1}\protected@file@percent }
\citation{WHILEY:5}
\citation{WHILEY:5}
\citation{WHILEY:2}
\@writefile{toc}{\contentsline {chapter}{\numberline {2}Background and Related Work}{3}{chapter.2}\protected@file@percent }
\@writefile{lof}{\addvspace {10\p@ }}
\@writefile{lot}{\addvspace {10\p@ }}
\newlabel{chap:LitReview}{{2}{3}{Background and Related Work}{chapter.2}{}}
\@writefile{toc}{\contentsline {section}{\numberline {2.1}The Whiley Programming Language}{3}{section.2.1}\protected@file@percent }
\citation{WHILEY:4}
\@writefile{toc}{\contentsline {subsection}{\numberline {2.1.1}Whiley Architecture}{4}{subsection.2.1.1}\protected@file@percent }
\@writefile{lof}{\contentsline {figure}{\numberline {2.1}{\ignorespaces Whiley's compilation and verification pipeline\relax }}{4}{figure.caption.7}\protected@file@percent }
\providecommand*\caption@xref[2]{\@setref\relax\@undefined{#1}}
\newlabel{fig:WHILEY1}{{2.1}{4}{Whiley's compilation and verification pipeline\relax }{figure.caption.7}{}}
\@writefile{toc}{\contentsline {subsection}{\numberline {2.1.2}Limitations of Whiley}{4}{subsection.2.1.2}\protected@file@percent }
\newlabel{limitations}{{2.1.2}{4}{Limitations of Whiley}{subsection.2.1.2}{}}
\citation{WHILEY:4,WHILELOOPRULE}
\citation{WHILEY:3}
\@writefile{toc}{\contentsline {subsection}{\numberline {2.1.3}Verification Condition Generation}{6}{subsection.2.1.3}\protected@file@percent }
\newlabel{VerCondGen}{{2.1.3}{6}{Verification Condition Generation}{subsection.2.1.3}{}}
\@writefile{toc}{\contentsline {subsubsection}{Weakest Precondition Transformer}{6}{section*.8}\protected@file@percent }
\@writefile{toc}{\contentsline {subsubsection}{Strongest Postcondition Transformer}{6}{section*.9}\protected@file@percent }
\citation{WHILEY:4}
\citation{WHILEY:4}
\citation{WHILEY:4}
\@writefile{toc}{\contentsline {subsubsection}{Verification of the Sum Example}{7}{section*.10}\protected@file@percent }
\@writefile{lof}{\contentsline {figure}{\numberline {2.2}{\ignorespaces Representation of the paths that Whiley's verification condition generator will traverse for the `sum of non-negative integers' example \cite  {WHILEY:4}. Left represents the first traversal where the while loop is passed over, and the right represents the second traversal where the while loop is entered but does not continue further.\relax }}{8}{figure.caption.11}\protected@file@percent }
\newlabel{fig:SumTraversal}{{2.2}{8}{Representation of the paths that Whiley's verification condition generator will traverse for the `sum of non-negative integers' example \cite {WHILEY:4}. Left represents the first traversal where the while loop is passed over, and the right represents the second traversal where the while loop is entered but does not continue further.\relax }{figure.caption.11}{}}
\@writefile{toc}{\contentsline {paragraph}{First Verification Condition:}{8}{section*.12}\protected@file@percent }
\@writefile{toc}{\contentsline {paragraph}{Second Verification Condition:}{8}{section*.13}\protected@file@percent }
\@writefile{toc}{\contentsline {paragraph}{Third Verification Condition:}{8}{section*.14}\protected@file@percent }
\citation{SMC:3}
\@writefile{toc}{\contentsline {section}{\numberline {2.2}Software Model Checking}{9}{section.2.2}\protected@file@percent }
\newlabel{software model checking}{{2.2}{9}{Software Model Checking}{section.2.2}{}}
\@writefile{toc}{\contentsline {subsection}{\numberline {2.2.1}Trace Abstraction Refinement}{9}{subsection.2.2.1}\protected@file@percent }
\newlabel{trace abstraction}{{2.2.1}{9}{Trace Abstraction Refinement}{subsection.2.2.1}{}}
\citation{SMC:2}
\citation{SMC:2}
\citation{SMC:2}
\citation{SMC:2}
\citation{SMC:1}
\citation{SMC:1}
\@writefile{lof}{\contentsline {figure}{\numberline {2.3}{\ignorespaces The process of trace abstraction refinement for verifying programs \cite  {SMC:2}.\relax }}{11}{figure.caption.15}\protected@file@percent }
\newlabel{fig:SMC13}{{2.3}{11}{The process of trace abstraction refinement for verifying programs \cite {SMC:2}.\relax }{figure.caption.15}{}}
\citation{SMC:2}
\@writefile{toc}{\contentsline {subsection}{\numberline {2.2.2}Example Trace Abstraction Refinement}{12}{subsection.2.2.2}\protected@file@percent }
\@writefile{lof}{\contentsline {figure}{\numberline {2.4}{\ignorespaces Example program $P$ and the corresponding automaton $A_P$, represented as a CFG\cite  {SMC:1}.\relax }}{12}{figure.caption.16}\protected@file@percent }
\newlabel{fig:SMC82}{{2.4}{12}{Example program $P$ and the corresponding automaton $A_P$, represented as a CFG\cite {SMC:1}.\relax }{figure.caption.16}{}}
\@writefile{lof}{\contentsline {figure}{\numberline {2.5}{\ignorespaces Automaton $A_1$ constructed using the error trace $t_1: \tmspace  +\medmuskip {.2222em} x=0,\tmspace  +\thickmuskip {.2777em} y=0,\tmspace  +\thickmuskip {.2777em} x$\texttt  {++}$, \tmspace  +\thickmuskip {.2777em} y==-1$\relax }}{12}{figure.caption.17}\protected@file@percent }
\newlabel{fig:SMC11}{{2.5}{12}{Automaton $A_1$ constructed using the error trace $t_1: \: x=0,\; y=0,\; x$\texttt {++}$, \; y==-1$\relax }{figure.caption.17}{}}
\citation{SMC:2}
\citation{DBLP:journals/corr/abs-1907-03998}
\@writefile{lof}{\contentsline {figure}{\numberline {2.6}{\ignorespaces Automaton $A_2$ constructed using the error trace $t_2: \tmspace  +\medmuskip {.2222em} x=0,\tmspace  +\thickmuskip {.2777em} y=0,\tmspace  +\thickmuskip {.2777em} x$\texttt  {++}$, \tmspace  +\thickmuskip {.2777em} x==-1$\relax }}{13}{figure.caption.18}\protected@file@percent }
\newlabel{fig:SMC12}{{2.6}{13}{Automaton $A_2$ constructed using the error trace $t_2: \: x=0,\; y=0,\; x$\texttt {++}$, \; x==-1$\relax }{figure.caption.18}{}}
\@writefile{toc}{\contentsline {section}{\numberline {2.3}Ultimate Automizer and ESBMC}{13}{section.2.3}\protected@file@percent }
\citation{esbmc2018}
\citation{DBLP:journals/sttt/GadelhaIC17}
\citation{DBLP:conf/tacas/GadelhaMCN19}
\citation{DBLP:conf/spin/ChristHN12}
\citation{Z3}
\citation{CVC4}
\citation{UA-online}
\citation{ESBMCv6}
\citation{DBLP:conf/scala/SloaneCB16}
\citation{DBLP:conf/popl/Ford04}
\citation{sbt-ratsPaper}
\@writefile{toc}{\contentsline {section}{\numberline {2.4}sbt-rats}{14}{section.2.4}\protected@file@percent }
\newlabel{sbt-rats}{{2.4}{14}{sbt-rats}{section.2.4}{}}
\citation{KIAMA:1}
\@writefile{toc}{\contentsline {chapter}{\numberline {3}Methodology}{17}{chapter.3}\protected@file@percent }
\@writefile{lof}{\addvspace {10\p@ }}
\@writefile{lot}{\addvspace {10\p@ }}
\newlabel{methodology}{{3}{17}{Methodology}{chapter.3}{}}
\@writefile{toc}{\contentsline {section}{\numberline {3.1}Architecture}{18}{section.3.1}\protected@file@percent }
\@writefile{lof}{\contentsline {figure}{\numberline {3.1}{\ignorespaces Architecture showing the implementation of a custom translator to link the Skink verifier and Whiley.\relax }}{18}{figure.caption.19}\protected@file@percent }
\newlabel{fig:WhiSkiVerifPipeline2}{{3.1}{18}{Architecture showing the implementation of a custom translator to link the Skink verifier and Whiley.\relax }{figure.caption.19}{}}
\citation{DBLP:conf/popl/Ford04}
\citation{WHILEYLangSpec}
\@writefile{toc}{\contentsline {section}{\numberline {3.2}How Whiley was Modified to Solve the Indent-Sensitive Parsing Problem}{19}{section.3.2}\protected@file@percent }
\newlabel{modifyWhiley}{{3.2}{19}{How Whiley was Modified to Solve the Indent-Sensitive Parsing Problem}{section.3.2}{}}
\@writefile{toc}{\contentsline {section}{\numberline {3.3}Translation of Whiley to C}{19}{section.3.3}\protected@file@percent }
\newlabel{translation}{{3.3}{19}{Translation of Whiley to C}{section.3.3}{}}
\citation{DBLP:journals/sigsoft/Hathhorn12}
\@writefile{toc}{\contentsline {subsection}{\numberline {3.3.1}Limitations of the Translator}{20}{subsection.3.3.1}\protected@file@percent }
\newlabel{possibleTranslations}{{3.3.1}{20}{Limitations of the Translator}{subsection.3.3.1}{}}
\@writefile{toc}{\contentsline {subsection}{\numberline {3.3.2}Whiley Constructs}{23}{subsection.3.3.2}\protected@file@percent }
\newlabel{whileyConstructs}{{3.3.2}{23}{Whiley Constructs}{subsection.3.3.2}{}}
\@writefile{toc}{\contentsline {subsection}{\numberline {3.3.3}C Constructs}{26}{subsection.3.3.3}\protected@file@percent }
\@writefile{toc}{\contentsline {subsection}{\numberline {3.3.4}Translating the Constructs}{29}{subsection.3.3.4}\protected@file@percent }
\newlabel{translateCons}{{3.3.4}{29}{Translating the Constructs}{subsection.3.3.4}{}}
\@writefile{toc}{\contentsline {subsubsection}{Initialisation}{29}{section*.20}\protected@file@percent }
\newlabel{init}{{3.3.4}{29}{Initialisation}{section*.20}{}}
\@writefile{toc}{\contentsline {subsubsection}{Declaration}{29}{section*.21}\protected@file@percent }
\@writefile{toc}{\contentsline {subsubsection}{Assign}{29}{section*.22}\protected@file@percent }
\@writefile{toc}{\contentsline {subsubsection}{Type Declaration}{29}{section*.23}\protected@file@percent }
\@writefile{toc}{\contentsline {subsubsection}{Constant Declaration}{30}{section*.24}\protected@file@percent }
\@writefile{toc}{\contentsline {subsubsection}{If Statements}{31}{section*.25}\protected@file@percent }
\@writefile{toc}{\contentsline {subsubsection}{Switch Statements}{31}{section*.26}\protected@file@percent }
\@writefile{toc}{\contentsline {subsubsection}{While Statements}{31}{section*.27}\protected@file@percent }
\@writefile{toc}{\contentsline {subsubsection}{Do .. While Statements}{31}{section*.28}\protected@file@percent }
\@writefile{toc}{\contentsline {subsubsection}{Function Declaration}{32}{section*.29}\protected@file@percent }
\@writefile{toc}{\contentsline {subsubsection}{Method Declaration}{33}{section*.30}\protected@file@percent }
\@writefile{toc}{\contentsline {subsubsection}{Return Type}{33}{section*.31}\protected@file@percent }
\@writefile{toc}{\contentsline {subsubsection}{Parameters}{34}{section*.32}\protected@file@percent }
\@writefile{toc}{\contentsline {subsubsection}{Return Statements}{34}{section*.33}\protected@file@percent }
\@writefile{toc}{\contentsline {subsubsection}{Assert Statements}{34}{section*.34}\protected@file@percent }
\@writefile{toc}{\contentsline {subsubsection}{Skip, Break, and Continue Statements}{34}{section*.35}\protected@file@percent }
\@writefile{toc}{\contentsline {subsubsection}{Where Expressions}{34}{section*.36}\protected@file@percent }
\newlabel{where}{{3.3.4}{34}{Where Expressions}{section*.36}{}}
\@writefile{toc}{\contentsline {subsubsection}{Types}{35}{section*.37}\protected@file@percent }
\@writefile{toc}{\contentsline {subsubsection}{Expressions}{35}{section*.38}\protected@file@percent }
\@writefile{toc}{\contentsline {subsubsection}{Quantifier Expressions}{36}{section*.39}\protected@file@percent }
\@writefile{toc}{\contentsline {subsubsection}{LVals}{37}{section*.41}\protected@file@percent }
\@writefile{toc}{\contentsline {subsubsection}{Identifiers}{37}{section*.42}\protected@file@percent }
\@writefile{toc}{\contentsline {subsubsection}{Literals}{37}{section*.43}\protected@file@percent }
\@writefile{toc}{\contentsline {chapter}{\numberline {4}Results}{39}{chapter.4}\protected@file@percent }
\@writefile{lof}{\addvspace {10\p@ }}
\@writefile{lot}{\addvspace {10\p@ }}
\newlabel{chap:Results}{{4}{39}{Results}{chapter.4}{}}
\@writefile{toc}{\contentsline {section}{\numberline {4.1}Absolute Value Function With Error}{40}{section.4.1}\protected@file@percent }
\newlabel{abs}{{4.1}{40}{Absolute Value Function With Error}{section.4.1}{}}
\@writefile{toc}{\contentsline {subsection}{\numberline {4.1.1}Verifier Output}{41}{subsection.4.1.1}\protected@file@percent }
\@writefile{lof}{\contentsline {figure}{\numberline {4.1}{\ignorespaces Results from verifying the `Absolute Value Function' example that contains an error in Whiley.\relax }}{41}{figure.caption.44}\protected@file@percent }
\newlabel{ABS-WHILEY}{{4.1}{41}{Results from verifying the `Absolute Value Function' example that contains an error in Whiley.\relax }{figure.caption.44}{}}
\@writefile{lof}{\contentsline {figure}{\numberline {4.2}{\ignorespaces Results from verifying the `Absolute Value Function' example that contains an error in Ultimate Automizer.\relax }}{41}{figure.caption.45}\protected@file@percent }
\newlabel{ABS-UA}{{4.2}{41}{Results from verifying the `Absolute Value Function' example that contains an error in Ultimate Automizer.\relax }{figure.caption.45}{}}
\@writefile{lof}{\contentsline {figure}{\numberline {4.3}{\ignorespaces Results from verifying the `Absolute Value Function' example that contains an error in ESBMC.\relax }}{42}{figure.caption.46}\protected@file@percent }
\newlabel{ABS-ESBMC}{{4.3}{42}{Results from verifying the `Absolute Value Function' example that contains an error in ESBMC.\relax }{figure.caption.46}{}}
\@writefile{toc}{\contentsline {subsection}{\numberline {4.1.2}Discussion}{42}{subsection.4.1.2}\protected@file@percent }
\@writefile{toc}{\contentsline {section}{\numberline {4.2}Sum of Non-negative Integers Example}{43}{section.4.2}\protected@file@percent }
\newlabel{sum}{{4.2}{43}{Sum of Non-negative Integers Example}{section.4.2}{}}
\@writefile{toc}{\contentsline {subsection}{\numberline {4.2.1}Output from Verifiers}{44}{subsection.4.2.1}\protected@file@percent }
\@writefile{lof}{\contentsline {figure}{\numberline {4.4}{\ignorespaces Results from verifying `Sum' example in Whiley without the $i \geq 0$ loop invariant.\relax }}{44}{figure.caption.47}\protected@file@percent }
\newlabel{SUM-WHILEY1}{{4.4}{44}{Results from verifying `Sum' example in Whiley without the $i \geq 0$ loop invariant.\relax }{figure.caption.47}{}}
\@writefile{lof}{\contentsline {figure}{\numberline {4.5}{\ignorespaces Results from verifying `Sum' example in Whiley without the $r \geq 0$ loop invariant.\relax }}{44}{figure.caption.48}\protected@file@percent }
\newlabel{COUNT-WHILEY-UA-LI}{{4.5}{44}{Results from verifying `Sum' example in Whiley without the $r \geq 0$ loop invariant.\relax }{figure.caption.48}{}}
\@writefile{lof}{\contentsline {figure}{\numberline {4.6}{\ignorespaces Results from verifying `Sum' example in Ultimate Automizer without a loop invariant.\relax }}{44}{figure.caption.49}\protected@file@percent }
\newlabel{COUNT-WHILEY-UA-LI}{{4.6}{44}{Results from verifying `Sum' example in Ultimate Automizer without a loop invariant.\relax }{figure.caption.49}{}}
\@writefile{lof}{\contentsline {figure}{\numberline {4.7}{\ignorespaces Results from verifying `Sum' example in ESBMC without a loop invariant.\relax }}{45}{figure.caption.50}\protected@file@percent }
\newlabel{SUM-WHILEY1}{{4.7}{45}{Results from verifying `Sum' example in ESBMC without a loop invariant.\relax }{figure.caption.50}{}}
\@writefile{toc}{\contentsline {subsection}{\numberline {4.2.2}Discussion}{45}{subsection.4.2.2}\protected@file@percent }
\@writefile{lof}{\contentsline {figure}{\numberline {4.8}{\ignorespaces Loop invariant produced from modifier `Sum of Non-negative Integers' example without a loop invariant in Ultimate Automizer.\relax }}{46}{figure.caption.51}\protected@file@percent }
\newlabel{SUM-UA-SIMPLE-LI}{{4.8}{46}{Loop invariant produced from modifier `Sum of Non-negative Integers' example without a loop invariant in Ultimate Automizer.\relax }{figure.caption.51}{}}
\citation{WhileyExamples}
\@writefile{toc}{\contentsline {section}{\numberline {4.3}Count}{48}{section.4.3}\protected@file@percent }
\newlabel{count}{{4.3}{48}{Count}{section.4.3}{}}
\@writefile{toc}{\contentsline {subsection}{\numberline {4.3.1}Output from Verifiers}{49}{subsection.4.3.1}\protected@file@percent }
\@writefile{lof}{\contentsline {figure}{\numberline {4.9}{\ignorespaces Results from verifying the `Count' example without a loop invariant in Whiley.\relax }}{49}{figure.caption.52}\protected@file@percent }
\newlabel{COUNT-WHILEY-NO-LI}{{4.9}{49}{Results from verifying the `Count' example without a loop invariant in Whiley.\relax }{figure.caption.52}{}}
\@writefile{lof}{\contentsline {figure}{\numberline {4.10}{\ignorespaces Results from verifying the `Count' example without a loop invariant in Ultimate Automizer.\relax }}{49}{figure.caption.53}\protected@file@percent }
\newlabel{COUNT-UI-NO-LI}{{4.10}{49}{Results from verifying the `Count' example without a loop invariant in Ultimate Automizer.\relax }{figure.caption.53}{}}
\@writefile{lof}{\contentsline {figure}{\numberline {4.11}{\ignorespaces Results from verifying the `Count' example in ESBMC.\relax }}{50}{figure.caption.54}\protected@file@percent }
\newlabel{COUNT-ESBMC}{{4.11}{50}{Results from verifying the `Count' example in ESBMC.\relax }{figure.caption.54}{}}
\@writefile{toc}{\contentsline {subsection}{\numberline {4.3.2}Discussion}{50}{subsection.4.3.2}\protected@file@percent }
\@writefile{lof}{\contentsline {figure}{\numberline {4.12}{\ignorespaces Results from verifying the `Count' example with the loop invariant generated by Ultimate Automizer in Whiley.\relax }}{51}{figure.caption.55}\protected@file@percent }
\newlabel{COUNT-WHILEY-UA-LI}{{4.12}{51}{Results from verifying the `Count' example with the loop invariant generated by Ultimate Automizer in Whiley.\relax }{figure.caption.55}{}}
\@writefile{lof}{\contentsline {figure}{\numberline {4.13}{\ignorespaces Results from verifying the `Count' example with the loop invariant accepted by Whiley in Ultimate Automizer.\relax }}{51}{figure.caption.56}\protected@file@percent }
\newlabel{COUNT-UA-WHILEY-LI}{{4.13}{51}{Results from verifying the `Count' example with the loop invariant accepted by Whiley in Ultimate Automizer.\relax }{figure.caption.56}{}}
\@writefile{toc}{\contentsline {section}{\numberline {4.4}Select Positives}{53}{section.4.4}\protected@file@percent }
\newlabel{selectpos}{{4.4}{53}{Select Positives}{section.4.4}{}}
\@writefile{toc}{\contentsline {subsection}{\numberline {4.4.1}Output from Verifiers}{55}{subsection.4.4.1}\protected@file@percent }
\@writefile{lof}{\contentsline {figure}{\numberline {4.14}{\ignorespaces Results from verifying the `Select Positives' example in Ultimate Automizer.\relax }}{55}{figure.caption.57}\protected@file@percent }
\newlabel{SELECTPOS-UA}{{4.14}{55}{Results from verifying the `Select Positives' example in Ultimate Automizer.\relax }{figure.caption.57}{}}
\@writefile{lof}{\contentsline {figure}{\numberline {4.15}{\ignorespaces Results from verifying `Select Positives' example in ESBMC.\relax }}{56}{figure.caption.58}\protected@file@percent }
\newlabel{SELECTPOS-ESBMC}{{4.15}{56}{Results from verifying `Select Positives' example in ESBMC.\relax }{figure.caption.58}{}}
\@writefile{toc}{\contentsline {subsection}{\numberline {4.4.2}Discussion}{56}{subsection.4.4.2}\protected@file@percent }
\@writefile{toc}{\contentsline {section}{\numberline {4.5}Select Positives With Error}{58}{section.4.5}\protected@file@percent }
\newlabel{invalidselectpos}{{4.5}{58}{Select Positives With Error}{section.4.5}{}}
\@writefile{toc}{\contentsline {subsection}{\numberline {4.5.1}Output from Verifiers}{60}{subsection.4.5.1}\protected@file@percent }
\@writefile{lof}{\contentsline {figure}{\numberline {4.16}{\ignorespaces Results from verifying `Select Positives With Error' example in Whiley without counterexamples active.\relax }}{60}{figure.caption.59}\protected@file@percent }
\newlabel{SELECTPOS-FALSE-WHILEY}{{4.16}{60}{Results from verifying `Select Positives With Error' example in Whiley without counterexamples active.\relax }{figure.caption.59}{}}
\@writefile{lof}{\contentsline {figure}{\numberline {4.17}{\ignorespaces Results from verifying `Select Positives With Error' example in Ultimate Automizer.\relax }}{61}{figure.caption.60}\protected@file@percent }
\newlabel{SELECTPOS-FALSE-UA}{{4.17}{61}{Results from verifying `Select Positives With Error' example in Ultimate Automizer.\relax }{figure.caption.60}{}}
\@writefile{lof}{\contentsline {figure}{\numberline {4.18}{\ignorespaces Results from verifying `Select Positives With Error' example in ESBMC.\relax }}{61}{figure.caption.61}\protected@file@percent }
\newlabel{SELECTPOS-FALSE-ESBMC}{{4.18}{61}{Results from verifying `Select Positives With Error' example in ESBMC.\relax }{figure.caption.61}{}}
\@writefile{toc}{\contentsline {subsection}{\numberline {4.5.2}Discussion}{62}{subsection.4.5.2}\protected@file@percent }
\@writefile{toc}{\contentsline {section}{\numberline {4.6}Discussion of Results as a Whole}{63}{section.4.6}\protected@file@percent }
\@writefile{toc}{\contentsline {chapter}{\numberline {5}Conclusion}{65}{chapter.5}\protected@file@percent }
\@writefile{lof}{\addvspace {10\p@ }}
\@writefile{lot}{\addvspace {10\p@ }}
\newlabel{chap:Conclusions}{{5}{65}{Conclusion}{chapter.5}{}}
\@writefile{toc}{\contentsline {subsection}{\numberline {5.0.1}Future Work}{66}{subsection.5.0.1}\protected@file@percent }
\newlabel{futureWork}{{5.0.1}{66}{Future Work}{subsection.5.0.1}{}}
\@writefile{toc}{\contentsline {subsubsection}{Translate Unmodified Whiley Programs}{66}{section*.62}\protected@file@percent }
\@writefile{toc}{\contentsline {subsubsection}{Translate All Whiley Constructs}{66}{section*.63}\protected@file@percent }
\@writefile{toc}{\contentsline {subsubsection}{Automate the Verification Process}{67}{section*.64}\protected@file@percent }
\@writefile{toc}{\contentsline {chapter}{\numberline {6}Abbreviations}{69}{chapter.6}\protected@file@percent }
\@writefile{lof}{\addvspace {10\p@ }}
\@writefile{lot}{\addvspace {10\p@ }}
\newlabel{chap:abbreviations}{{6}{69}{Abbreviations}{chapter.6}{}}
\@writefile{toc}{\contentsline {chapter}{\numberline {A}Git Repository}{71}{appendix.A}\protected@file@percent }
\@writefile{lof}{\addvspace {10\p@ }}
\@writefile{lot}{\addvspace {10\p@ }}
\citation{WHILEY:3}
\@writefile{toc}{\contentsline {chapter}{\numberline {B}Hoare Logic}{73}{appendix.B}\protected@file@percent }
\@writefile{lof}{\addvspace {10\p@ }}
\@writefile{lot}{\addvspace {10\p@ }}
\newlabel{Hoare}{{B}{73}{Hoare Logic}{appendix.B}{}}
\@writefile{toc}{\contentsline {section}{\numberline {B.1}Hoare Triples}{73}{section.B.1}\protected@file@percent }
\@writefile{toc}{\contentsline {section}{\numberline {B.2}Rules of Hoare Logic}{74}{section.B.2}\protected@file@percent }
\@writefile{lof}{\contentsline {figure}{\numberline {B.1}{\ignorespaces The rules of Hoare logic\relax }}{74}{figure.caption.65}\protected@file@percent }
\newlabel{fig:HL1}{{B.1}{74}{The rules of Hoare logic\relax }{figure.caption.65}{}}
\@writefile{toc}{\contentsline {subsection}{\numberline {B.2.1}Assign}{74}{subsection.B.2.1}\protected@file@percent }
\@writefile{lof}{\contentsline {figure}{\numberline {B.2}{\ignorespaces Hoare Assign rule\relax }}{74}{figure.caption.66}\protected@file@percent }
\newlabel{fig:HL2}{{B.2}{74}{Hoare Assign rule\relax }{figure.caption.66}{}}
\@writefile{toc}{\contentsline {subsection}{\numberline {B.2.2}While}{74}{subsection.B.2.2}\protected@file@percent }
\@writefile{lof}{\contentsline {figure}{\numberline {B.3}{\ignorespaces Hoare While rule\relax }}{74}{figure.caption.67}\protected@file@percent }
\newlabel{fig:HL3}{{B.3}{74}{Hoare While rule\relax }{figure.caption.67}{}}
\citation{WHILEY:1}
\citation{HOARE:3}
\@writefile{toc}{\contentsline {subsection}{\numberline {B.2.3}Sequence}{75}{subsection.B.2.3}\protected@file@percent }
\@writefile{lof}{\contentsline {figure}{\numberline {B.4}{\ignorespaces Hoare Sequence rule\relax }}{75}{figure.caption.68}\protected@file@percent }
\newlabel{fig:HL4}{{B.4}{75}{Hoare Sequence rule\relax }{figure.caption.68}{}}
\citation{HOARE:1}
\citation{HOARE:2}
\@writefile{toc}{\contentsline {subsection}{\numberline {B.2.4}Consequence}{76}{subsection.B.2.4}\protected@file@percent }
\@writefile{lof}{\contentsline {figure}{\numberline {B.5}{\ignorespaces Hoare Consequence rule\relax }}{76}{figure.caption.69}\protected@file@percent }
\newlabel{fig:HL5}{{B.5}{76}{Hoare Consequence rule\relax }{figure.caption.69}{}}
\citation{HOARE:3}
\bibstyle{IEEEtranS}
\bibdata{my_reference}
\@writefile{toc}{\contentsline {subsection}{\numberline {B.2.5}Condition}{77}{subsection.B.2.5}\protected@file@percent }
\@writefile{lof}{\contentsline {figure}{\numberline {B.6}{\ignorespaces Hoare Condition rule\relax }}{77}{figure.caption.70}\protected@file@percent }
\newlabel{fig:HL6}{{B.6}{77}{Hoare Condition rule\relax }{figure.caption.70}{}}
\@writefile{toc}{\contentsline {chapter}{Bibliography}{77}{section*.71}\protected@file@percent }
\bibcite{CVC4}{1}
\bibcite{WHILELOOPRULE}{2}
\bibcite{Z3}{3}
\bibcite{DBLP:conf/spin/ChristHN12}{4}
\bibcite{SMC:3}{5}
\bibcite{UA-online}{6}
\bibcite{Ultimate-Automizer}{7}
\bibcite{DBLP:journals/corr/abs-1907-03998}{8}
\bibcite{DBLP:conf/popl/Ford04}{9}
\bibcite{ESBMCv6}{10}
\bibcite{esbmc2018}{11}
\bibcite{DBLP:journals/sttt/GadelhaIC17}{12}
\bibcite{DBLP:conf/tacas/GadelhaMCN19}{13}
\bibcite{HOARE:2}{14}
\bibcite{DBLP:journals/sigsoft/Hathhorn12}{15}
\bibcite{SMC:1}{16}
\bibcite{SMC:2}{17}
\bibcite{HOARE:3}{18}
\bibcite{BufO}{19}
\bibcite{THERAC}{20}
\bibcite{HOARE:1}{21}
\bibcite{WHILEY:1}{22}
\bibcite{WHILEY:2}{23}
\bibcite{WHILEYLangSpec}{24}
\bibcite{WhileyExamples}{25}
\bibcite{WHILEY:3}{26}
\bibcite{WHILEY:5}{27}
\bibcite{WHILEY:4}{28}
\bibcite{KIAMA:1}{29}
\bibcite{sbt-ratsPaper}{30}
\bibcite{DBLP:conf/scala/SloaneCB16}{31}
\bibcite{TURING}{32}
